axi_i2c_bridge/bench/waves.vcd
$date
	Fri Dec 24 16:11:05 2021
$end

$version
	Synopsys VCS version O-2018.09-SP1_Full64
$end

$timescale
	1ns
$end

$comment Csum: 1 2ebb5fdd69a604ec $end


$scope module $unit $end
$upscope $end


$scope module axi_lite_pkg $end
$upscope $end


$scope module tst_bench_top $end
$var reg 1 ! areset_n $end
$var reg 1 " start_read $end
$var reg 1 # start_write $end
$var reg 32 $ write_data [31:0] $end
$var reg 32 % read_data [31:0] $end
$var reg 32 & write_read_address [31:0] $end
$var reg 1 ' clk $end
$var reg 1 ( rstn $end
$var wire 32 ) adr [31:0] $end
$var wire 8 * dat_i [7:0] $end
$var wire 8 + dat_o [7:0] $end
$var wire 8 , dat0_i [7:0] $end
$var wire 8 - dat1_i [7:0] $end
$var wire 1 . we $end
$var wire 1 / stb $end
$var wire 1 0 cyc $end
$var wire 1 1 ack $end
$var wire 1 2 inta $end
$var reg 8 3 q [7:0] $end
$var reg 8 4 qq [7:0] $end
$var wire 1 5 scl $end
$var wire 1 6 scl0_o $end
$var wire 1 7 scl0_oen $end
$var wire 1 8 scl1_o $end
$var wire 1 9 scl1_oen $end
$var wire 1 : sda $end
$var wire 1 ; sda0_o $end
$var wire 1 < sda0_oen $end
$var wire 1 = sda1_o $end
$var wire 1 > sda1_oen $end
$var wire 4 ? wb_sel [3:0] $end
$var reg 4 @ test_state_ [3:0] $end
$var reg 32 A repetetions [31:0] $end
$var reg 32 B slave_no [31:0] $end

$scope task write $end
$var reg 32 C data [31:0] $end
$var reg 32 D address [31:0] $end
$upscope $end


$scope task read $end
$var reg 32 E address [31:0] $end
$upscope $end


$scope module vif $end
$var reg 1 F clk $end
$var reg 32 G s_axi_araddr [31:0] $end
$var wire 1 H s_axi_arvalid $end
$var wire 1 I s_axi_arready $end
$var reg 32 J s_axi_rdata [31:0] $end
$var reg 2 K s_axi_rresp [1:0] $end
$var wire 1 L s_axi_rvalid $end
$var wire 1 M s_axi_rready $end
$var reg 32 N s_axi_awaddr [31:0] $end
$var wire 1 O s_axi_awvalid $end
$var wire 1 P s_axi_awready $end
$var reg 32 Q s_axi_wdata [31:0] $end
$var reg 4 R s_axi_wstrb [3:0] $end
$var wire 1 S s_axi_wvalid $end
$var wire 1 T s_axi_wready $end
$var reg 2 U s_axi_bresp [1:0] $end
$var wire 1 V s_axi_bvalid $end
$var wire 1 W s_axi_bready $end
$var wire 3 X s_axi_arprot [2:0] $end
$var wire 3 Y s_axi_awprot [2:0] $end
$upscope $end


$scope module axi_lite_master_vif $end
$var reg 1 Z clk $end
$var reg 32 [ s_axi_araddr [31:0] $end
$var wire 1 \ s_axi_arvalid $end
$var wire 1 ] s_axi_arready $end
$var reg 32 ^ s_axi_rdata [31:0] $end
$var reg 2 _ s_axi_rresp [1:0] $end
$var wire 1 ` s_axi_rvalid $end
$var wire 1 a s_axi_rready $end
$var reg 32 b s_axi_awaddr [31:0] $end
$var wire 1 c s_axi_awvalid $end
$var wire 1 d s_axi_awready $end
$var reg 32 e s_axi_wdata [31:0] $end
$var reg 4 f s_axi_wstrb [3:0] $end
$var wire 1 g s_axi_wvalid $end
$var wire 1 h s_axi_wready $end
$var reg 2 i s_axi_bresp [1:0] $end
$var wire 1 j s_axi_bvalid $end
$var wire 1 k s_axi_bready $end
$var wire 3 l s_axi_arprot [2:0] $end
$var wire 3 m s_axi_awprot [2:0] $end
$upscope $end


$scope module axi_lite_master_DUT $end
$var reg 1 n aclk $end
$var reg 1 o areset_n $end
$var reg 1 p start_read $end
$var reg 1 q start_write $end
$var reg 32 r write_data [31:0] $end
$var reg 32 s write_read_address [31:0] $end
$var reg 3 t state [2:0] $end
$var reg 3 u next_state [2:0] $end
$var reg 32 v addr [31:0] $end
$var reg 32 w data [31:0] $end
$var reg 32 x rdata [31:0] $end
$var reg 1 y start_read_delay $end
$var reg 1 z start_write_delay $end
$upscope $end


$scope module axi_i2c_bridge_ $end
$var reg 1 { clk $end
$var wire 1 | axi_reset_n $end
$var wire 1 c axi_awvalid $end
$var wire 1 d axi_awready $end
$var wire 32 } axi_awaddr [31:0] $end
$var wire 3 l axi_awprot [2:0] $end
$var wire 1 g axi_wvalid $end
$var wire 1 h axi_wready $end
$var wire 32 ~ axi_wdata [31:0] $end
$var wire 4 "! axi_wstrb [3:0] $end
$var wire 1 j axi_bvalid $end
$var wire 1 k axi_bready $end
$var wire 2 "" axi_bresp [1:0] $end
$var wire 1 \ axi_arvalid $end
$var wire 1 ] axi_arready $end
$var wire 32 "# axi_araddr [31:0] $end
$var wire 3 "$ axi_arprot [2:0] $end
$var wire 1 ` axi_rvalid $end
$var wire 1 a axi_rready $end
$var wire 32 "% axi_rdata [31:0] $end
$var wire 2 "& axi_rresp [1:0] $end
$var wire 1 5 scl_pad_i $end
$var wire 1 6 scl_pad_o $end
$var wire 1 7 scl_padoen_o $end
$var wire 1 : sda_pad_i $end
$var wire 1 ; sda_pad_o $end
$var wire 1 < sda_padoen_o $end
$var reg 1 "' rstn $end
$var wire 32 "( adr [31:0] $end
$var wire 8 ") dat_i [7:0] $end
$var wire 8 "* dat_o [7:0] $end
$var wire 8 ") dat0_i [7:0] $end
$var wire 8 "+ dat1_i [7:0] $end
$var wire 1 ", we $end
$var wire 1 "- stb $end
$var wire 1 ". cyc $end
$var wire 1 "/ ack $end
$var wire 1 "0 inta $end
$var reg 8 "1 q [7:0] $end
$var reg 8 "2 qq [7:0] $end
$var wire 1 "3 scl $end
$var wire 1 "4 scl0_o $end
$var wire 1 "5 scl0_oen $end
$var wire 1 "6 sda $end
$var wire 1 "7 sda0_o $end
$var wire 1 "8 sda0_oen $end
$var wire 4 "9 wb_sel [3:0] $end

$scope module axit_to_wb_bridge $end
$var wire 1 { i_clk $end
$var wire 1 | i_axi_reset_n $end
$var wire 1 c i_axi_awvalid $end
$var wire 1 d o_axi_awready $end
$var wire 28 ": i_axi_awaddr [27:0] $end
$var wire 3 "$ i_axi_awprot [2:0] $end
$var wire 1 g i_axi_wvalid $end
$var wire 1 h o_axi_wready $end
$var wire 32 ~ i_axi_wdata [31:0] $end
$var wire 4 "! i_axi_wstrb [3:0] $end
$var wire 1 j o_axi_bvalid $end
$var wire 1 k i_axi_bready $end
$var wire 2 "" o_axi_bresp [1:0] $end
$var wire 1 \ i_axi_arvalid $end
$var wire 1 ] o_axi_arready $end
$var wire 28 "; i_axi_araddr [27:0] $end
$var wire 3 "< i_axi_arprot [2:0] $end
$var wire 1 ` o_axi_rvalid $end
$var wire 1 a i_axi_rready $end
$var wire 32 "% o_axi_rdata [31:0] $end
$var wire 2 "& o_axi_rresp [1:0] $end
$var wire 1 "= o_reset $end
$var wire 1 ". o_wb_cyc $end
$var wire 1 "- o_wb_stb $end
$var wire 1 ", o_wb_we $end
$var wire 26 "> o_wb_addr [25:0] $end
$var wire 32 "? o_wb_data [31:0] $end
$var wire 4 "9 o_wb_sel [3:0] $end
$var wire 1 "@ i_wb_stall $end
$var wire 1 "/ i_wb_ack $end
$var wire 32 "A i_wb_data [31:0] $end
$var wire 1 "B i_wb_err $end
$var wire 26 "C w_wb_addr [25:0] $end
$var wire 26 "D r_wb_addr [25:0] $end
$var wire 32 "E w_wb_data [31:0] $end
$var wire 4 "F w_wb_sel [3:0] $end
$var wire 4 "G r_wb_sel [3:0] $end
$var wire 1 "H r_wb_err $end
$var wire 1 "I r_wb_cyc $end
$var wire 1 "J r_wb_stb $end
$var wire 1 "K r_wb_stall $end
$var wire 1 "L r_wb_ack $end
$var wire 1 "M w_wb_err $end
$var wire 1 "N w_wb_cyc $end
$var wire 1 "O w_wb_stb $end
$var wire 1 "P w_wb_stall $end
$var wire 1 "Q w_wb_ack $end
$var wire 1 "R r_wb_we $end
$var wire 1 "S w_wb_we $end

$scope module AXI_WR.axi_write_decoder $end
$var wire 1 { i_clk $end
$var wire 1 | i_axi_reset_n $end
$var wire 1 c i_axi_awvalid $end
$var reg 1 "T o_axi_awready $end
$var wire 28 ": i_axi_awaddr [27:0] $end
$var wire 3 "$ i_axi_awprot [2:0] $end
$var wire 1 g i_axi_wvalid $end
$var reg 1 "U o_axi_wready $end
$var wire 32 ~ i_axi_wdata [31:0] $end
$var wire 4 "! i_axi_wstrb [3:0] $end
$var reg 1 "V o_axi_bvalid $end
$var wire 1 k i_axi_bready $end
$var reg 2 "W o_axi_bresp [1:0] $end
$var reg 1 "N o_wb_cyc $end
$var reg 1 "O o_wb_stb $end
$var reg 26 "C o_wb_addr [25:0] $end
$var reg 32 "E o_wb_data [31:0] $end
$var reg 4 "F o_wb_sel [3:0] $end
$var wire 1 "Q i_wb_ack $end
$var wire 1 "P i_wb_stall $end
$var wire 1 "M i_wb_err $end
$var wire 1 "= w_reset $end
$var reg 1 "X r_awvalid $end
$var reg 1 "Y r_wvalid $end
$var reg 26 "Z r_addr [25:0] $end
$var reg 32 "[ r_data [31:0] $end
$var reg 4 "\ r_sel [3:0] $end
$var reg 1 "] fifo_full $end
$var reg 1 "^ fifo_empty $end
$var reg 5 "_ r_first [4:0] $end
$var reg 5 "` r_mid [4:0] $end
$var reg 5 "a r_last [4:0] $end
$var wire 5 "b next_first [4:0] $end
$var wire 5 "c next_last [4:0] $end
$var reg 1 "d wb_pending $end
$var reg 5 "e wb_outstanding [4:0] $end
$var reg 5 "f err_loc [4:0] $end
$var reg 1 "g err_state $end
$var wire 1 "h axi_write_accepted $end
$var wire 1 "i pending_axi_write $end
$var wire 1 "j unused $end
$upscope $end


$scope module AXI_RD.axi_read_decoder $end
$var wire 1 "k i_clk $end
$var wire 1 | i_axi_reset_n $end
$var wire 1 \ i_axi_arvalid $end
$var reg 1 "l o_axi_arready $end
$var wire 28 "; i_axi_araddr [27:0] $end
$var wire 3 "< i_axi_arprot [2:0] $end
$var reg 1 "m o_axi_rvalid $end
$var wire 1 a i_axi_rready $end
$var wire 32 "% o_axi_rdata [31:0] $end
$var reg 2 "n o_axi_rresp [1:0] $end
$var reg 1 "o o_wb_cyc $end
$var reg 1 "p o_wb_stb $end
$var reg 26 "q o_wb_addr [25:0] $end
$var wire 4 "G o_wb_sel [3:0] $end
$var wire 1 "K i_wb_stall $end
$var wire 1 "L i_wb_ack $end
$var wire 32 "A i_wb_data [31:0] $end
$var wire 1 "H i_wb_err $end
$var wire 1 "= w_reset $end
$var reg 1 "r r_stb $end
$var reg 26 "s r_addr [25:0] $end
$var reg 1 "t fifo_full $end
$var reg 1 "u fifo_empty $end
$var reg 5 "v r_first [4:0] $end
$var reg 5 "w r_mid [4:0] $end
$var reg 5 "x r_last [4:0] $end
$var wire 5 "y next_first [4:0] $end
$var wire 5 "z next_last [4:0] $end
$var reg 1 "{ wb_pending $end
$var reg 5 "| wb_outstanding [4:0] $end
$var wire 32 "} read_data [31:0] $end
$var reg 1 "~ err_state $end
$var reg 5 #! err_loc [4:0] $end
$var wire 1 #" unused $end
$upscope $end


$scope module ARB_WB.readorwrite $end
$var wire 1 "k i_clk $end
$var wire 1 ## i_reset $end
$var wire 1 "I i_a_cyc $end
$var wire 1 "J i_a_stb $end
$var wire 1 #$ i_a_we $end
$var wire 26 "D i_a_adr [25:0] $end
$var wire 32 #% i_a_dat [31:0] $end
$var wire 4 "G i_a_sel [3:0] $end
$var wire 1 "L o_a_ack $end
$var wire 1 "K o_a_stall $end
$var wire 1 "H o_a_err $end
$var wire 1 #& i_b_cyc $end
$var wire 1 #' i_b_stb $end
$var wire 1 #( i_b_we $end
$var wire 26 #) i_b_adr [25:0] $end
$var wire 32 #% i_b_dat [31:0] $end
$var wire 4 #* i_b_sel [3:0] $end
$var wire 1 "Q o_b_ack $end
$var wire 1 "P o_b_stall $end
$var wire 1 "M o_b_err $end
$var wire 1 ". o_cyc $end
$var wire 1 "- o_stb $end
$var wire 1 ", o_we $end
$var wire 26 "> o_adr [25:0] $end
$var wire 32 "? o_dat [31:0] $end
$var wire 4 "9 o_sel [3:0] $end
$var wire 1 "/ i_ack $end
$var wire 1 #$ i_stall $end
$var wire 1 #$ i_err $end
$var reg 1 #+ r_a_owner $end
$var wire 1 #, unused $end
$var reg 1 #- ALT.last_owner $end
$upscope $end

$upscope $end


$scope module i2c_top $end
$var wire 1 "k wb_clk_i $end
$var wire 1 #$ wb_rst_i $end
$var wire 1 | arst_i $end
$var wire 3 #. wb_adr_i [2:0] $end
$var wire 8 "* wb_dat_i [7:0] $end
$var reg 8 #/ wb_dat_o [7:0] $end
$var wire 1 ", wb_we_i $end
$var wire 1 "- wb_stb_i $end
$var wire 1 ". wb_cyc_i $end
$var reg 1 #0 wb_ack_o $end
$var reg 1 #1 wb_inta_o $end
$var wire 1 "3 scl_pad_i $end
$var wire 1 "4 scl_pad_o $end
$var wire 1 "5 scl_padoen_o $end
$var wire 1 "6 sda_pad_i $end
$var wire 1 "7 sda_pad_o $end
$var wire 1 "8 sda_padoen_o $end
$var reg 16 #2 prer [15:0] $end
$var reg 8 #3 ctr [7:0] $end
$var reg 8 #4 txr [7:0] $end
$var wire 8 #5 rxr [7:0] $end
$var reg 8 #6 cr [7:0] $end
$var wire 8 #7 sr [7:0] $end
$var wire 1 #8 done $end
$var wire 1 #9 core_en $end
$var wire 1 #: ien $end
$var wire 1 #; irxack $end
$var reg 1 #< rxack $end
$var reg 1 #= tip $end
$var reg 1 #> irq_flag $end
$var wire 1 #? i2c_busy $end
$var wire 1 #@ i2c_al $end
$var reg 1 #A al $end
$var wire 1 #B rst_i $end
$var wire 1 #C wb_wacc $end
$var wire 1 #D sta $end
$var wire 1 #E sto $end
$var wire 1 #F rd $end
$var wire 1 #G wr $end
$var wire 1 #H ack $end
$var wire 1 #I iack $end

$scope module byte_controller $end
$var wire 1 "k clk $end
$var wire 1 #$ rst $end
$var wire 1 #B nReset $end
$var wire 1 #9 ena $end
$var wire 16 #2 clk_cnt [15:0] $end
$var wire 1 #D start $end
$var wire 1 #E stop $end
$var wire 1 #F read $end
$var wire 1 #G write $end
$var wire 1 #H ack_in $end
$var wire 8 #4 din [7:0] $end
$var reg 1 #8 cmd_ack $end
$var reg 1 #; ack_out $end
$var wire 1 #? i2c_busy $end
$var wire 1 #@ i2c_al $end
$var wire 8 #5 dout [7:0] $end
$var wire 1 "3 scl_i $end
$var wire 1 "4 scl_o $end
$var wire 1 "5 scl_oen $end
$var wire 1 "6 sda_i $end
$var wire 1 "7 sda_o $end
$var wire 1 "8 sda_oen $end
$var reg 4 #J core_cmd [3:0] $end
$var reg 1 #K core_txd $end
$var wire 1 #L core_ack $end
$var wire 1 #M core_rxd $end
$var reg 8 #5 sr [7:0] $end
$var reg 1 #N shift $end
$var reg 1 #O ld $end
$var wire 1 #P go $end
$var reg 3 #Q dcnt [2:0] $end
$var wire 1 #R cnt_done $end
$var reg 5 #S c_state [4:0] $end

$scope module bit_controller $end
$var wire 1 "k clk $end
$var wire 1 #$ rst $end
$var wire 1 #B nReset $end
$var wire 1 #9 ena $end
$var wire 16 #2 clk_cnt [15:0] $end
$var wire 4 #J cmd [3:0] $end
$var reg 1 #L cmd_ack $end
$var reg 1 #? busy $end
$var reg 1 #@ al $end
$var wire 1 #K din $end
$var reg 1 #M dout $end
$var wire 1 "3 scl_i $end
$var wire 1 "4 scl_o $end
$var reg 1 #T scl_oen $end
$var wire 1 "6 sda_i $end
$var wire 1 "7 sda_o $end
$var reg 1 #U sda_oen $end
$var reg 2 #V cSCL [1:0] $end
$var reg 2 #W cSDA [1:0] $end
$var reg 3 #X fSCL [2:0] $end
$var reg 3 #Y fSDA [2:0] $end
$var reg 1 #Z sSCL $end
$var reg 1 #[ sSDA $end
$var reg 1 #\ dSCL $end
$var reg 1 #] dSDA $end
$var reg 1 #^ dscl_oen $end
$var reg 1 #_ sda_chk $end
$var reg 1 #` clk_en $end
$var reg 1 #a slave_wait $end
$var reg 16 #b cnt [15:0] $end
$var reg 14 #c filter_cnt [13:0] $end
$var reg 18 #d c_state [17:0] $end
$var wire 1 #e scl_sync $end
$var reg 1 #f sta_condition $end
$var reg 1 #g sto_condition $end
$var reg 1 #h cmd_stop $end
$upscope $end

$upscope $end

$upscope $end

$upscope $end


$scope module i2c_slave $end
$var wire 1 5 scl $end
$var wire 1 : sda $end
$var wire 1 #i debug $end
$var reg 8 #j mem_adr [7:0] $end
$var reg 8 #k mem_do [7:0] $end
$var reg 1 #l sta $end
$var reg 1 #m d_sta $end
$var reg 1 #n sto $end
$var reg 1 #o d_sto $end
$var reg 8 #p sr [7:0] $end
$var reg 1 #q rw $end
$var wire 1 #r my_adr $end
$var wire 1 #s i2c_reset $end
$var reg 3 #t bit_cnt [2:0] $end
$var wire 1 #u acc_done $end
$var reg 1 #v ld $end
$var reg 1 #w sda_o $end
$var wire 1 #x sda_dly $end
$var reg 3 #y state [2:0] $end
$var wire 1 #z tst_sto $end
$var wire 1 #{ tst_sta $end
$upscope $end


$scope module m0_scl $end
$var wire 1 #| in $end
$var wire 1 #} out $end
$upscope $end


$scope module m0_sda $end
$var wire 1 #~ in $end
$var wire 1 $! out $end
$upscope $end

$upscope $end


$scope module uvm_pkg $end
$var reg 32 $" UVM_UNBOUNDED_CONNECTIONS [31:0] $end
$var reg 1 $# uvm_start_uvm_declarations $end
$var reg 32 $$ uvm_global_random_seed [31:0] $end
$upscope $end

$enddefinitions $end

#0
$dumpvars
1$#
b11111111111111111111111111111111 $"
b11010111000011101001001001001010 $$
1!
x'
x#m
x#o
x#v
x(
x#q
x#x
1#w
x#l
0"
0#
x#n
x#u
x#s
x#r
x#{
x#z
bxxx #t
bxxxxxxxx #j
bxxxxxxxx #k
bxxxxxxxx 3
bxxxxxxxx 4
bxxxxxxxxxxxxxxxxxxxxxxxxxxxxxxxx %
bxxxxxxxx #p
b000 #y
b0001 @
b00000000000000000000000000001010 $
b00000000000000000000000000000100 &
b00000000000000000000000000000000 E
b00000000000000000000000000000000 A
b00000000000000000000000000000010 B
b00000000000000000000000000000000 D
b00000000000000000000000000000000 C
bxx U
bxxxx R
bxxxxxxxxxxxxxxxxxxxxxxxxxxxxxxxx Q
bxxxxxxxxxxxxxxxxxxxxxxxxxxxxxxxx N
bxx K
bxxxxxxxxxxxxxxxxxxxxxxxxxxxxxxxx J
bxxxxxxxxxxxxxxxxxxxxxxxxxxxxxxxx G
b00 i
b0000 f
b00000000000000000000000000000000 e
b00000000000000000000000000000000 b
b00 _
bxxxxxxxxxxxxxxxxxxxxxxxxxxxxxxxx ^
b00000000000000000000000000000000 [
0y
0z
b00000000000000000000000000000100 v
b11011110101011011011111011101111 w
bxxxxxxxxxxxxxxxxxxxxxxxxxxxxxxxx x
b000 u
b000 t
b00000000000000000000000000001010 r
b00000000000000000000000000000100 s
1"T
0"V
1"U
0"N
0"O
0"h
0"g
1"^
0"]
x"0
0"i
0"X
0"Y
x"'
1"S
0"d
b00 "W
b0000000000000000000000000x "C
b0000000000000000000000000000x0x0 "E
b0000 "F
bzzz "$
bxxxxxxxx ")
bxxxxx "f
b00001 "b
b00001 "c
bxxxxxxxx "1
bxxxxxxxx "2
bxxxxxxxxxxxxxxxxxxxxxxxxxx "Z
bxxxxxxxxxxxxxxxxxxxxxxxxxxxxxxxx "[
b00000 "_
b00000 "a
b00000 "`
bxxxx "\
b00000 "e
x#;
x#A
x#L
x#M
x#T
x#U
x#?
x#@
x#`
x#8
x#h
x#K
x#\
x#]
x#^
x#P
x#>
x#O
x#<
x#Z
x#[
x#e
x#_
x#N
x#a
x#f
x#g
x#9
x#D
x#E
x#F
x#G
x#H
x#:
x#I
x#R
x#=
x#0
x#1
0#C
bxxxxxxxxxxxxxxxxxx #d
bxxxxxxxx #5
bxz #V
bxz #W
bxxxxx #S
bxxxxxxxxxxxxxxxx #b
bxxxx #J
bxxxxxxxx #6
bxxxxxxxx #3
bxxx #Q
bxxx #X
bxxx #Y
bxxxxxxxxxxxxxx #c
bxxxxxxxxxxxxxxxx #2
bxxx000xx #7
bxxxxxxxx #4
bxxxxxxxx #/
0"~
1"u
0"t
1"l
0"m
0"o
0"p
0"r
0"{
bxxxxx #!
b00001 "y
b00001 "z
b00 "n
b0000000000000000000000000x "q
bxxxxxxxxxxxxxxxxxxxxxxxxxx "s
b00000 "v
b00000 "x
b00000 "w
bxxxxxxxxxxxxxxxxxxxxxxxxxxxxxxxx "}
b00000 "|
0#-
1#+
1#i
bzzzz ?
z>
z=
z9
z8
z2
z1
z0
z/
z.
bzzzzzzzz -
bzzzzzzzz ,
bzzzzzzzz +
bzzzzzzzz *
bzzzzzzzzzzzzzzzzzzzzzzzzzzzzzzzz )
1F
1n
1{
x#|
x#~
x:
1o
0p
0q
x5
1|
b00000000000000000000000000000000 }
b00000000000000000000000000000000 ~
b0000 "!
b00 ""
b00000000000000000000000000000000 "#
bxxxxxxxxxxxxxxxxxxxxxxxxxxxxxxxx "%
b00 "&
z6
z7
z;
z<
x#}
x$!
bzzz X
zI
zH
zP
zO
zW
zV
zM
zL
zT
zS
xZ
bzzz l
1]
0\
1d
0c
0k
0j
0a
0`
1h
0g
0",
0"-
0".
x"/
bzzz "<
0"I
0"J
b0000000000000000000000000x "D
b1111 "G
0"K
x"L
b000000000000000000000000xxxxxxxx "A
0"H
1"P
0"Q
0"M
b0000000000000000000000000000x0x0 "?
b1111 "9
b0000x0x0 "*
b0000000000000000000000000000x0x0 #%
0#&
0#'
b0000000000000000000000000x #)
b0000 #*
0"=
b0000000000000000000000000000 ":
b0000000000000000000000000000 ";
b0000000000000000000000000000000x "(
b0000000000000000000000000x ">
b00x #.
1"k
0#$
z"3
0"4
x"5
z"6
0"7
x"8
0##
1#(
1#B
$end
#1
0#0
0"/
0"L
bxxxxx000 #6
0#I
0#N
0#O
0#8
0#`
0#L
#5
0F
0n
0{
0"k
#10
1F
1n
1{
1"k
b00000000000000000000000000000100 D
1#
1q
b00000000000000000000000000000000 $
b00000000000000000000000000000000 r
b0010 @
1z
b00000000000000000000000000 "C
b00000000000000000000000000 #)
b00000000000000000000000000000000 "E
b00000000000000000000000000000000 #%
bzz #V
bzz #W
b00000000000000000000000000 "q
b00000000000000000000000000 "D
b011 u
b00000000000000000000000000000000 "?
b00000000 "*
b00000000000000000000000000 ">
b000 #.
b00000000000000000000000000000000 "(
#15
0F
0n
0{
0"k
#20
1F
1n
1{
1"k
b011 t
1c
b00000000000000000000000000000100 b
b00000000000000000000000000000100 }
b0000000000000000000000000100 ":
b100 u
#25
0F
0n
0{
0"k
#30
0!
0|
1##
0#B
1"=
0o
1F
1n
1{
1"k
b00000000000000000000000000000000 x
0z
b000 t
0c
b00000000000000000000000000000000 b
b00000000000000000000000000000000 }
b0000000000000000000000000000 ":
b00000000000000000000000001 "C
b00000000000000000000000001 #)
b00000000000000000000000001 "Z
0#a
b00000000000000 #c
b111 #X
b111 #Y
b000 u
#31
b1101111010101101 #2
b00000000 #3
0#9
0#:
b00000000 #4
b00000000 #6
0#D
0#E
0#F
0#G
0#H
0#P
0#A
0#<
0#=
0#>
0#1
0"0
b00000000 #5
b000 #Q
1#R
b0000 #J
0#K
b00000 #S
0#;
b0000000000000000 #b
1#`
b00 #V
b00 #W
1#Z
1#[
1#\
1#]
0#f
0#g
0#?
0#h
0#@
b000000000000000000 #d
1#T
1"5
1#U
1"8
0#_
b00000000 #7
0#e
#35
0F
0n
0{
0"k
#40
1F
1n
1{
1"k
b00000000000000000000000000 "C
b00000000000000000000000000 #)
#41
b10101101 #/
b10101101 ")
b00000000000000000000000010101101 "A
1#^
#45
0F
0n
0{
0"k
#50
1F
1n
1{
1"k
#55
0F
0n
0{
0"k
#60
1!
1|
0##
1#B
0"=
1o
1F
1n
1{
1"k
1z
b0z #V
b0z #W
b110 #X
b110 #Y
b011 u
#61
b1101111010101101 #b
#65
0F
0n
0{
0"k
#70
1F
1n
1{
1"k
b011 t
1c
b00000000000000000000000000000100 b
b00000000000000000000000000000100 }
b0000000000000000000000000100 ":
bzz #V
bzz #W
b100 #X
b100 #Y
b100 u
#75
0F
0n
0{
0"k
#80
1F
1n
1{
1"k
b100 t
0c
b00000000000000000000000000000000 b
b00000000000000000000000000000000 }
b0000000000000000000000000000 ":
1g
b00000000000000000000000001 "C
b00000000000000000000000001 #)
1"X
0"T
0d
b00z #X
b00z #Y
b101 u
1"i
1"h
#81
0#Z
0#[
1#e
#85
0F
0n
0{
0"k
#90
1F
1n
1{
1"k
b101 t
0g
1k
1"O
1#'
0"X
b00000000000000000000000000000000 "[
b0000 "\
1"T
1d
0"^
b00001 "_
b00010 "b
b0zz #X
b0zz #Y
0"i
1"N
1#&
0"h
#91
0#\
0#]
0#e
#95
0F
0n
0{
0"k
#100
1F
1n
1{
1"k
bzzz #X
bzzz #Y
0#+
1"K
0"P
b0000 "9
b00000000000000000000000001 ">
b001 #.
1",
1"-
1".
b00000000000000000000000000000001 "(
#101
x#Z
x#[
#105
0F
0n
0{
0"k
#110
1F
1n
1{
1"k
0"O
0#'
b00001 "e
1"d
0"-
#111
1#0
1"/
1"Q
1#C
b11011110 #/
b11011110 ")
b00000000000000000000000011011110 "A
x#\
x#]
x#g
x#e
#115
0F
0n
0{
0"k
#120
1F
1n
1{
1"k
b00000 "e
0"d
b00001 "`
1"V
1j
0"N
0#&
b000 u
0".
#121
0#0
0"/
0"Q
0#C
b0000000010101101 #2
x#f
#125
0F
0n
0{
0"k
#130
1F
1n
1{
1"k
b0011 @
b000 t
0k
b00000000000000000000000000 "C
b00000000000000000000000000 #)
b00001 "a
b00010 "c
0"V
0j
1#+
0"K
1"P
b011 u
b00000000000000000000000000 ">
b000 #.
b1111 "9
0",
b00000000000000000000000000000000 "(
#131
b00000000 #/
b00000000 ")
b00000000000000000000000000000000 "A
b0000000010101101 #b
x#?
b0x000000 #7
#135
0F
0n
0{
0"k
#140
1F
1n
1{
1"k
b00000000000000000000000000000100 E
0#
0q
1"
1p
b0100 @
1y
0z
b011 t
1c
b00000000000000000000000000000100 b
b00000000000000000000000000000100 }
b0000000000000000000000000100 ":
b100 u
#141
b10101101 #/
b10101101 ")
b00000000000000000000000010101101 "A
#145
0F
0n
0{
0"k
#150
1F
1n
1{
1"k
b100 t
0c
b00000000000000000000000000000000 b
b00000000000000000000000000000000 }
b0000000000000000000000000000 ":
1g
b00000000000000000000000001 "C
b00000000000000000000000001 #)
1"X
0"T
0d
b101 u
1"i
1"h
#155
0F
0n
0{
0"k
#160
1F
1n
1{
1"k
b101 t
0g
1k
1"O
1#'
0"X
1"T
1d
b00010 "_
b00011 "b
0"i
1"N
1#&
0"h
#165
0F
0n
0{
0"k
#170
1F
1n
1{
1"k
0#+
1"K
0"P
b0000 "9
b00000000000000000000000001 ">
b001 #.
1",
1"-
1".
b00000000000000000000000000000001 "(
#175
0F
0n
0{
0"k
#180
1F
1n
1{
1"k
0"O
0#'
b00001 "e
1"d
0"-
#181
1#0
1"/
1"Q
1#C
b00000000 #/
b00000000 ")
b00000000000000000000000000000000 "A
#185
0F
0n
0{
0"k
#190
1F
1n
1{
1"k
b00000 "e
0"d
b00010 "`
1"V
1j
0"N
0#&
b000 u
0".
#191
0#0
0"/
0"Q
0#C
#195
0F
0n
0{
0"k
#200
1F
1n
1{
1"k
b000 t
0k
b00000000000000000000000000 "C
b00000000000000000000000000 #)
b00010 "a
b00011 "c
0"V
0j
1#+
0"K
1"P
b001 u
b00000000000000000000000000 ">
b000 #.
b1111 "9
0",
b00000000000000000000000000000000 "(
#205
0F
0n
0{
0"k
#210
1F
1n
1{
1"k
b001 t
1\
b00000000000000000000000000000100 [
b00000000000000000000000000000100 "#
b0000000000000000000000000100 ";
b010 u
#211
b10101101 #/
b10101101 ")
b00000000000000000000000010101101 "A
#215
0F
0n
0{
0"k
#220
1F
1n
1{
1"k
b010 t
0\
b00000000000000000000000000000000 [
b00000000000000000000000000000000 "#
b0000000000000000000000000000 ";
1a
1"p
1"J
b00000000000000000000000001 "q
b00000000000000000000000001 "D
0"u
b00001 "v
b00010 "y
1"o
1"I
1"-
b00000000000000000000000001 ">
b001 #.
1".
b00000000000000000000000000000001 "(
#225
0F
0n
0{
0"k
#230
1F
1n
1{
1"k
bxxxxxxxxxxxxxxxxxxxxxxxxxxxxxxxx x
0"p
0"J
b00000000000000000000000000 "q
b00000000000000000000000000 "D
b00001 "|
1"{
1#-
0"-
b00000000000000000000000000 ">
b000 #.
b00000000000000000000000000000000 "(
#231
1#0
1"/
1"L
b00000000 #/
b00000000 ")
b00000000000000000000000000000000 "A
#235
0F
0n
0{
0"k
#240
1F
1n
1{
1"k
b00000 "|
0"{
b00001 "w
b00000000000000000000000000000000 "}
b00000000000000000000000000000000 "%
b00000000000000000000000000000000 ^
1"m
1`
0"o
0"I
b000 u
0".
#241
0#0
0"/
0"L
b10101101 #/
b10101101 ")
b00000000000000000000000010101101 "A
#245
0F
0n
0{
0"k
#250
1F
1n
1{
1"k
b00000000000000000000000000000000 %
b0101 @
b00000000000000000000000000000000 x
b000 t
0a
b00001 "x
bxxxxxxxxxxxxxxxxxxxxxxxxxxxxxxxx "}
bxxxxxxxxxxxxxxxxxxxxxxxxxxxxxxxx "%
bxxxxxxxxxxxxxxxxxxxxxxxxxxxxxxxx ^
b00010 "z
0"m
0`
0#+
1"K
0"P
b001 u
b0000 "9
1",
#255
0F
0n
0{
0"k
#260
1F
1n
1{
1"k
b00000000000000000000000000000001 A
b0000 @
b001 t
1\
b00000000000000000000000000000100 [
b00000000000000000000000000000100 "#
b0000000000000000000000000100 ";
b010 u
#265
0F
0n
0{
0"k
